<svg width="41" height="41" viewBox="0 0 41 41" fill="none" xmlns="http://www.w3.org/2000/svg">
<circle cx="20.5" cy="20.5" r="20" stroke="white"/>
<path d="M20.5 11.5V26M20.5 26L15.5 22.5M20.5 26L25.5 22.5M15.5 30H25.5" stroke="white" stroke-width="2" stroke-linecap="round"/>
</svg>
