<svg width="11" height="11" viewBox="0 0 11 11" fill="none" xmlns="http://www.w3.org/2000/svg">
<path d="M1.84048 5.73049L4.67812 8.26796L9.14896 1.5635" stroke="black" stroke-width="2" stroke-linecap="round"/>
</svg>
